v { version=2.9.8 file_version=1.2}
G {}
K {type=prim
format="@spiceprefix@name @@vop @@von @@iip @@iin @symname gain=@gain"
template="
name=H1
spiceprefix=X
model=symname
gain=1
"}
V {}
S {}
E {}
L 4 -20 -0 0 -20 {}
L 4 -20 -0 -0 20 {}
L 4 -0 20 20 -0 {}
L 4 -0 -20 20 -0 {}
L 4 -30 -30 -30 -2.5 {}
L 4 0 -30 0 -20 {}
L 4 0 20 -0 30 {}
L 4 -30 5 -30 30 {}
L 4 -2.5 10 2.5 10 {}
L 4 0 -12.5 0 -7.5 {}
L 4 -2.5 -10 2.5 -10 {}
B 5 -32.5 -32.5 -27.5 -27.5 {name=iip
dir=inout}
B 5 -32.5 27.5 -27.5 32.5 {name=iin
dir=inout}
B 5 -2.5 -32.5 2.5 -27.5 {name=vop
dir=inout}
B 5 -2.5 27.5 2.5 32.5 {name=von
dir=inout}
P 4 4 -30 5 -27.5 -2.5 -32.5 -2.5 -30 5 {fill=true}
T {@gain} 20 0 0 0 0.2 0.2 {}
T {@name} 20 -10 0 0 0.2 0.2 {}
