v {xschem version=3.4.6RC file_version=1.2
}
G {}
K {type=iopin
format="*.iopin @lab"
template="name=p1 lab=xxx"
}
V {}
S {}
E {}
B 5 -0.0098 -0.009765619999999999 0.0098 0.009765619999999999 {name=p dir=inout}
P 5 7 0 0 5.625 -4.84375 10.7812 -4.84375 16.4062 -0 10.7812 4.84375 5.625 4.84375 -0 0 {fill=true}
T {@lab} 19.8438 -13.75 0 0 0.33 0.33 {}
