v {xschem version=3.4.5 file_version=1.2
}
G {}
K {type=label
format="*.alias @lab"
template="name=l1 sig_type=std_logic lab=xxx"}
V {}
S {}
E {}
B 5 -1.25 -1.25 1.25 1.25 {name=p dir=in}
T {@lab} -7.5 -10 0 1 0.33 0.33 {}
